%YAML 1.1
%TAG !u! tag:unity3d.com,2011:
--- !u!74 &7400000
AnimationClip:
  m_ObjectHideFlags: 0
  m_CorrespondingSourceObject: {fileID: 0}
  m_PrefabInstance: {fileID: 0}
  m_PrefabAsset: {fileID: 0}
  m_Name: death
  serializedVersion: 7
  m_Legacy: 0
  m_Compressed: 0
  m_UseHighQualityCurve: 1
  m_RotationCurves: []
  m_CompressedRotationCurves: []
  m_EulerCurves: []
  m_PositionCurves: []
  m_ScaleCurves: []
  m_FloatCurves: []
  m_PPtrCurves:
  - curve:
    - time: 0
      value: {fileID: 21300000, guid: 6897fd125113e88409a49d31c050a1ef, type: 3}
    - time: 0.041666668
      value: {fileID: 21300000, guid: dacf71b6aa7b3db44b741d76f4f11f13, type: 3}
    - time: 0.083333336
      value: {fileID: 21300000, guid: 72ff7043e1968c44588c54e2436ae44d, type: 3}
    - time: 0.125
      value: {fileID: 21300000, guid: b30ec0d6c0e9fcd4da8c02a66510a5e6, type: 3}
    - time: 0.16666667
      value: {fileID: 21300000, guid: 9a4ad4eb45834f64ba77b62da9a99bb0, type: 3}
    - time: 0.20833333
      value: {fileID: 21300000, guid: 7c74ac454aeafb04398d594d7f455dd0, type: 3}
    - time: 0.25
      value: {fileID: 21300000, guid: b2d72d73b2561fa47ae7a9d5d5d59558, type: 3}
    - time: 0.29166666
      value: {fileID: 21300000, guid: d3d6c7d28c9b3a44ca5b7af840b7247c, type: 3}
    - time: 0.33333334
      value: {fileID: 21300000, guid: 9183fcd1f3d607e468b2648174aa3480, type: 3}
    - time: 0.375
      value: {fileID: 21300000, guid: eae8c70f98bf4704781e7e291a683ea7, type: 3}
    - time: 0.41666666
      value: {fileID: 21300000, guid: 47ed6769ef2a1c040919d2d19b339941, type: 3}
    - time: 0.45833334
      value: {fileID: 21300000, guid: effa311dd1c964441932491f84762e95, type: 3}
    - time: 0.5
      value: {fileID: 21300000, guid: 175a9a4ead3aa2746ac72cd62ffa11d2, type: 3}
    - time: 0.5416667
      value: {fileID: 21300000, guid: be776f9af11844140a980e9e454beb9b, type: 3}
    - time: 0.5833333
      value: {fileID: 21300000, guid: 658a812aceb3ace4da3ad193af12ead5, type: 3}
    - time: 0.625
      value: {fileID: 21300000, guid: 2ef495c37fa506c479dbd5e935ceba8c, type: 3}
    - time: 1.3333334
      value: {fileID: 21300000, guid: 2ef495c37fa506c479dbd5e935ceba8c, type: 3}
    attribute: m_Sprite
    path: 
    classID: 212
    script: {fileID: 0}
  m_SampleRate: 24
  m_WrapMode: 0
  m_Bounds:
    m_Center: {x: 0, y: 0, z: 0}
    m_Extent: {x: 0, y: 0, z: 0}
  m_ClipBindingConstant:
    genericBindings:
    - serializedVersion: 2
      path: 0
      attribute: 0
      script: {fileID: 0}
      typeID: 212
      customType: 23
      isPPtrCurve: 1
    pptrCurveMapping:
    - {fileID: 21300000, guid: 6897fd125113e88409a49d31c050a1ef, type: 3}
    - {fileID: 21300000, guid: dacf71b6aa7b3db44b741d76f4f11f13, type: 3}
    - {fileID: 21300000, guid: 72ff7043e1968c44588c54e2436ae44d, type: 3}
    - {fileID: 21300000, guid: b30ec0d6c0e9fcd4da8c02a66510a5e6, type: 3}
    - {fileID: 21300000, guid: 9a4ad4eb45834f64ba77b62da9a99bb0, type: 3}
    - {fileID: 21300000, guid: 7c74ac454aeafb04398d594d7f455dd0, type: 3}
    - {fileID: 21300000, guid: b2d72d73b2561fa47ae7a9d5d5d59558, type: 3}
    - {fileID: 21300000, guid: d3d6c7d28c9b3a44ca5b7af840b7247c, type: 3}
    - {fileID: 21300000, guid: 9183fcd1f3d607e468b2648174aa3480, type: 3}
    - {fileID: 21300000, guid: eae8c70f98bf4704781e7e291a683ea7, type: 3}
    - {fileID: 21300000, guid: 47ed6769ef2a1c040919d2d19b339941, type: 3}
    - {fileID: 21300000, guid: effa311dd1c964441932491f84762e95, type: 3}
    - {fileID: 21300000, guid: 175a9a4ead3aa2746ac72cd62ffa11d2, type: 3}
    - {fileID: 21300000, guid: be776f9af11844140a980e9e454beb9b, type: 3}
    - {fileID: 21300000, guid: 658a812aceb3ace4da3ad193af12ead5, type: 3}
    - {fileID: 21300000, guid: 2ef495c37fa506c479dbd5e935ceba8c, type: 3}
    - {fileID: 21300000, guid: 2ef495c37fa506c479dbd5e935ceba8c, type: 3}
  m_AnimationClipSettings:
    serializedVersion: 2
    m_AdditiveReferencePoseClip: {fileID: 0}
    m_AdditiveReferencePoseTime: 0
    m_StartTime: 0
    m_StopTime: 1.375
    m_OrientationOffsetY: 0
    m_Level: 0
    m_CycleOffset: 0
    m_HasAdditiveReferencePose: 0
    m_LoopTime: 0
    m_LoopBlend: 0
    m_LoopBlendOrientation: 0
    m_LoopBlendPositionY: 0
    m_LoopBlendPositionXZ: 0
    m_KeepOriginalOrientation: 0
    m_KeepOriginalPositionY: 1
    m_KeepOriginalPositionXZ: 0
    m_HeightFromFeet: 0
    m_Mirror: 0
  m_EditorCurves: []
  m_EulerEditorCurves: []
  m_HasGenericRootTransform: 0
  m_HasMotionFloatCurves: 0
  m_Events: []
