%YAML 1.1
%TAG !u! tag:unity3d.com,2011:
--- !u!74 &7400000
AnimationClip:
  m_ObjectHideFlags: 0
  m_CorrespondingSourceObject: {fileID: 0}
  m_PrefabInstance: {fileID: 0}
  m_PrefabAsset: {fileID: 0}
  m_Name: walk
  serializedVersion: 7
  m_Legacy: 0
  m_Compressed: 0
  m_UseHighQualityCurve: 1
  m_RotationCurves: []
  m_CompressedRotationCurves: []
  m_EulerCurves: []
  m_PositionCurves: []
  m_ScaleCurves: []
  m_FloatCurves: []
  m_PPtrCurves:
  - curve:
    - time: 0
      value: {fileID: 21300000, guid: c951964f15fe7714f93e53d0bd346ea0, type: 3}
    - time: 0.028571429
      value: {fileID: 21300000, guid: 7edec4ef0578db443b952fec14714209, type: 3}
    - time: 0.057142857
      value: {fileID: 21300000, guid: f75447ec665147c46b5344f1ba538cb2, type: 3}
    - time: 0.08571429
      value: {fileID: 21300000, guid: 0da731c5435602d49bca1c3b142ce552, type: 3}
    - time: 0.114285715
      value: {fileID: 21300000, guid: a937e00ca7c576148b0f589596605aa2, type: 3}
    - time: 0.14285715
      value: {fileID: 21300000, guid: eaebb057fa1e1204e9ecd6e4b79b54cd, type: 3}
    - time: 0.17142858
      value: {fileID: 21300000, guid: 5fa310b297f740540b8e3ddfbfd1c3d8, type: 3}
    - time: 0.2
      value: {fileID: 21300000, guid: 5b7cb88a585bea142922114ba16a9ac4, type: 3}
    - time: 0.22857143
      value: {fileID: 21300000, guid: 4437c763fbaa5c1488ef0e5e02a1c64c, type: 3}
    - time: 0.25714287
      value: {fileID: 21300000, guid: 76ad0a70b8f7e1f43a68a9bfcc3038bf, type: 3}
    - time: 0.2857143
      value: {fileID: 21300000, guid: 6105ed18195839746ab608294c2d8333, type: 3}
    - time: 0.31428573
      value: {fileID: 21300000, guid: aa62bc87ec1bc4e4b9d692641385b844, type: 3}
    - time: 0.34285715
      value: {fileID: 21300000, guid: c6b042e969e99184dab8af91ac6ca207, type: 3}
    - time: 0.37142858
      value: {fileID: 21300000, guid: c53f5f452aeeb7c41b8b02065825bb05, type: 3}
    - time: 0.4
      value: {fileID: 21300000, guid: be9915fc34b765943aab3c41721a5154, type: 3}
    - time: 0.42857143
      value: {fileID: 21300000, guid: e29b3e7b185f2934d86c13f3c670c7e2, type: 3}
    - time: 0.45714286
      value: {fileID: 21300000, guid: 6dfa5c9198c7f29478d05183b8979228, type: 3}
    - time: 0.4857143
      value: {fileID: 21300000, guid: 008675c5e5ddd77489420db272003fef, type: 3}
    - time: 0.51428574
      value: {fileID: 21300000, guid: 6921bfd8e3f685f4fa1bc6d80fcfccbb, type: 3}
    - time: 0.54285717
      value: {fileID: 21300000, guid: 96c93437c700ab9408e88d89b03b0a9c, type: 3}
    - time: 0.5714286
      value: {fileID: 21300000, guid: 36e35657d5ecea9438b5a93043d8d3f3, type: 3}
    - time: 0.6
      value: {fileID: 21300000, guid: 9c95df763800e2844a49e6a3d81053da, type: 3}
    - time: 0.62857145
      value: {fileID: 21300000, guid: af0115ab256fe8a4695d3383d9e1a881, type: 3}
    - time: 0.6571429
      value: {fileID: 21300000, guid: 5949c5d3d6d2d2b44948969af3684003, type: 3}
    - time: 0.6857143
      value: {fileID: 21300000, guid: 09d540aa64699744e90dfe3e5cecbbb6, type: 3}
    - time: 0.71428573
      value: {fileID: 21300000, guid: b4f6523964a3bf74bb87fc2e72850f7b, type: 3}
    - time: 0.74285716
      value: {fileID: 21300000, guid: 4b6d591068400704aae1becfaa0378cb, type: 3}
    - time: 0.7714286
      value: {fileID: 21300000, guid: 0c6f0e771a157904485c5f258aa43eb8, type: 3}
    - time: 0.8
      value: {fileID: 21300000, guid: 7edec4ef0578db443b952fec14714209, type: 3}
    - time: 0.82857144
      value: {fileID: 21300000, guid: f75447ec665147c46b5344f1ba538cb2, type: 3}
    - time: 0.85714287
      value: {fileID: 21300000, guid: 0da731c5435602d49bca1c3b142ce552, type: 3}
    - time: 0.8857143
      value: {fileID: 21300000, guid: a937e00ca7c576148b0f589596605aa2, type: 3}
    - time: 0.9142857
      value: {fileID: 21300000, guid: eaebb057fa1e1204e9ecd6e4b79b54cd, type: 3}
    - time: 0.94285715
      value: {fileID: 21300000, guid: 5fa310b297f740540b8e3ddfbfd1c3d8, type: 3}
    - time: 0.9714286
      value: {fileID: 21300000, guid: 5b7cb88a585bea142922114ba16a9ac4, type: 3}
    - time: 1
      value: {fileID: 21300000, guid: 4437c763fbaa5c1488ef0e5e02a1c64c, type: 3}
    - time: 1.0285715
      value: {fileID: 21300000, guid: 76ad0a70b8f7e1f43a68a9bfcc3038bf, type: 3}
    - time: 1.0571429
      value: {fileID: 21300000, guid: 6105ed18195839746ab608294c2d8333, type: 3}
    - time: 1.0857143
      value: {fileID: 21300000, guid: aa62bc87ec1bc4e4b9d692641385b844, type: 3}
    - time: 1.1142857
      value: {fileID: 21300000, guid: c6b042e969e99184dab8af91ac6ca207, type: 3}
    - time: 1.1428572
      value: {fileID: 21300000, guid: c53f5f452aeeb7c41b8b02065825bb05, type: 3}
    - time: 1.1714286
      value: {fileID: 21300000, guid: be9915fc34b765943aab3c41721a5154, type: 3}
    - time: 1.2
      value: {fileID: 21300000, guid: e29b3e7b185f2934d86c13f3c670c7e2, type: 3}
    - time: 1.2285714
      value: {fileID: 21300000, guid: 6dfa5c9198c7f29478d05183b8979228, type: 3}
    - time: 1.2571429
      value: {fileID: 21300000, guid: 008675c5e5ddd77489420db272003fef, type: 3}
    - time: 1.2857143
      value: {fileID: 21300000, guid: 6921bfd8e3f685f4fa1bc6d80fcfccbb, type: 3}
    - time: 1.3142858
      value: {fileID: 21300000, guid: 96c93437c700ab9408e88d89b03b0a9c, type: 3}
    - time: 1.3428571
      value: {fileID: 21300000, guid: 36e35657d5ecea9438b5a93043d8d3f3, type: 3}
    - time: 1.3714286
      value: {fileID: 21300000, guid: 9c95df763800e2844a49e6a3d81053da, type: 3}
    - time: 1.4
      value: {fileID: 21300000, guid: af0115ab256fe8a4695d3383d9e1a881, type: 3}
    - time: 1.4285715
      value: {fileID: 21300000, guid: 5949c5d3d6d2d2b44948969af3684003, type: 3}
    - time: 1.4571428
      value: {fileID: 21300000, guid: 09d540aa64699744e90dfe3e5cecbbb6, type: 3}
    - time: 1.4857143
      value: {fileID: 21300000, guid: b4f6523964a3bf74bb87fc2e72850f7b, type: 3}
    - time: 1.5142857
      value: {fileID: 21300000, guid: 4b6d591068400704aae1becfaa0378cb, type: 3}
    - time: 1.5428572
      value: {fileID: 21300000, guid: 0c6f0e771a157904485c5f258aa43eb8, type: 3}
    attribute: m_Sprite
    path: 
    classID: 212
    script: {fileID: 0}
  m_SampleRate: 35
  m_WrapMode: 0
  m_Bounds:
    m_Center: {x: 0, y: 0, z: 0}
    m_Extent: {x: 0, y: 0, z: 0}
  m_ClipBindingConstant:
    genericBindings:
    - serializedVersion: 2
      path: 0
      attribute: 0
      script: {fileID: 0}
      typeID: 212
      customType: 23
      isPPtrCurve: 1
    pptrCurveMapping:
    - {fileID: 21300000, guid: c951964f15fe7714f93e53d0bd346ea0, type: 3}
    - {fileID: 21300000, guid: 7edec4ef0578db443b952fec14714209, type: 3}
    - {fileID: 21300000, guid: f75447ec665147c46b5344f1ba538cb2, type: 3}
    - {fileID: 21300000, guid: 0da731c5435602d49bca1c3b142ce552, type: 3}
    - {fileID: 21300000, guid: a937e00ca7c576148b0f589596605aa2, type: 3}
    - {fileID: 21300000, guid: eaebb057fa1e1204e9ecd6e4b79b54cd, type: 3}
    - {fileID: 21300000, guid: 5fa310b297f740540b8e3ddfbfd1c3d8, type: 3}
    - {fileID: 21300000, guid: 5b7cb88a585bea142922114ba16a9ac4, type: 3}
    - {fileID: 21300000, guid: 4437c763fbaa5c1488ef0e5e02a1c64c, type: 3}
    - {fileID: 21300000, guid: 76ad0a70b8f7e1f43a68a9bfcc3038bf, type: 3}
    - {fileID: 21300000, guid: 6105ed18195839746ab608294c2d8333, type: 3}
    - {fileID: 21300000, guid: aa62bc87ec1bc4e4b9d692641385b844, type: 3}
    - {fileID: 21300000, guid: c6b042e969e99184dab8af91ac6ca207, type: 3}
    - {fileID: 21300000, guid: c53f5f452aeeb7c41b8b02065825bb05, type: 3}
    - {fileID: 21300000, guid: be9915fc34b765943aab3c41721a5154, type: 3}
    - {fileID: 21300000, guid: e29b3e7b185f2934d86c13f3c670c7e2, type: 3}
    - {fileID: 21300000, guid: 6dfa5c9198c7f29478d05183b8979228, type: 3}
    - {fileID: 21300000, guid: 008675c5e5ddd77489420db272003fef, type: 3}
    - {fileID: 21300000, guid: 6921bfd8e3f685f4fa1bc6d80fcfccbb, type: 3}
    - {fileID: 21300000, guid: 96c93437c700ab9408e88d89b03b0a9c, type: 3}
    - {fileID: 21300000, guid: 36e35657d5ecea9438b5a93043d8d3f3, type: 3}
    - {fileID: 21300000, guid: 9c95df763800e2844a49e6a3d81053da, type: 3}
    - {fileID: 21300000, guid: af0115ab256fe8a4695d3383d9e1a881, type: 3}
    - {fileID: 21300000, guid: 5949c5d3d6d2d2b44948969af3684003, type: 3}
    - {fileID: 21300000, guid: 09d540aa64699744e90dfe3e5cecbbb6, type: 3}
    - {fileID: 21300000, guid: b4f6523964a3bf74bb87fc2e72850f7b, type: 3}
    - {fileID: 21300000, guid: 4b6d591068400704aae1becfaa0378cb, type: 3}
    - {fileID: 21300000, guid: 0c6f0e771a157904485c5f258aa43eb8, type: 3}
    - {fileID: 21300000, guid: 7edec4ef0578db443b952fec14714209, type: 3}
    - {fileID: 21300000, guid: f75447ec665147c46b5344f1ba538cb2, type: 3}
    - {fileID: 21300000, guid: 0da731c5435602d49bca1c3b142ce552, type: 3}
    - {fileID: 21300000, guid: a937e00ca7c576148b0f589596605aa2, type: 3}
    - {fileID: 21300000, guid: eaebb057fa1e1204e9ecd6e4b79b54cd, type: 3}
    - {fileID: 21300000, guid: 5fa310b297f740540b8e3ddfbfd1c3d8, type: 3}
    - {fileID: 21300000, guid: 5b7cb88a585bea142922114ba16a9ac4, type: 3}
    - {fileID: 21300000, guid: 4437c763fbaa5c1488ef0e5e02a1c64c, type: 3}
    - {fileID: 21300000, guid: 76ad0a70b8f7e1f43a68a9bfcc3038bf, type: 3}
    - {fileID: 21300000, guid: 6105ed18195839746ab608294c2d8333, type: 3}
    - {fileID: 21300000, guid: aa62bc87ec1bc4e4b9d692641385b844, type: 3}
    - {fileID: 21300000, guid: c6b042e969e99184dab8af91ac6ca207, type: 3}
    - {fileID: 21300000, guid: c53f5f452aeeb7c41b8b02065825bb05, type: 3}
    - {fileID: 21300000, guid: be9915fc34b765943aab3c41721a5154, type: 3}
    - {fileID: 21300000, guid: e29b3e7b185f2934d86c13f3c670c7e2, type: 3}
    - {fileID: 21300000, guid: 6dfa5c9198c7f29478d05183b8979228, type: 3}
    - {fileID: 21300000, guid: 008675c5e5ddd77489420db272003fef, type: 3}
    - {fileID: 21300000, guid: 6921bfd8e3f685f4fa1bc6d80fcfccbb, type: 3}
    - {fileID: 21300000, guid: 96c93437c700ab9408e88d89b03b0a9c, type: 3}
    - {fileID: 21300000, guid: 36e35657d5ecea9438b5a93043d8d3f3, type: 3}
    - {fileID: 21300000, guid: 9c95df763800e2844a49e6a3d81053da, type: 3}
    - {fileID: 21300000, guid: af0115ab256fe8a4695d3383d9e1a881, type: 3}
    - {fileID: 21300000, guid: 5949c5d3d6d2d2b44948969af3684003, type: 3}
    - {fileID: 21300000, guid: 09d540aa64699744e90dfe3e5cecbbb6, type: 3}
    - {fileID: 21300000, guid: b4f6523964a3bf74bb87fc2e72850f7b, type: 3}
    - {fileID: 21300000, guid: 4b6d591068400704aae1becfaa0378cb, type: 3}
    - {fileID: 21300000, guid: 0c6f0e771a157904485c5f258aa43eb8, type: 3}
  m_AnimationClipSettings:
    serializedVersion: 2
    m_AdditiveReferencePoseClip: {fileID: 0}
    m_AdditiveReferencePoseTime: 0
    m_StartTime: 0
    m_StopTime: 1.5714287
    m_OrientationOffsetY: 0
    m_Level: 0
    m_CycleOffset: 0
    m_HasAdditiveReferencePose: 0
    m_LoopTime: 1
    m_LoopBlend: 0
    m_LoopBlendOrientation: 0
    m_LoopBlendPositionY: 0
    m_LoopBlendPositionXZ: 0
    m_KeepOriginalOrientation: 0
    m_KeepOriginalPositionY: 1
    m_KeepOriginalPositionXZ: 0
    m_HeightFromFeet: 0
    m_Mirror: 0
  m_EditorCurves: []
  m_EulerEditorCurves: []
  m_HasGenericRootTransform: 0
  m_HasMotionFloatCurves: 0
  m_Events: []
