%YAML 1.1
%TAG !u! tag:unity3d.com,2011:
--- !u!74 &7400000
AnimationClip:
  m_ObjectHideFlags: 0
  m_CorrespondingSourceObject: {fileID: 0}
  m_PrefabInstance: {fileID: 0}
  m_PrefabAsset: {fileID: 0}
  m_Name: arm
  serializedVersion: 7
  m_Legacy: 0
  m_Compressed: 0
  m_UseHighQualityCurve: 1
  m_RotationCurves: []
  m_CompressedRotationCurves: []
  m_EulerCurves: []
  m_PositionCurves: []
  m_ScaleCurves: []
  m_FloatCurves: []
  m_PPtrCurves:
  - curve:
    - time: 0
      value: {fileID: 21300000, guid: 192f64098ef468e4e8219879d0f01e55, type: 3}
    - time: 0.016666668
      value: {fileID: 21300000, guid: f7749d7337534bb468036a33cc2caa3c, type: 3}
    - time: 0.033333335
      value: {fileID: 21300000, guid: abd69e3102fa10e41b4d29581acc2296, type: 3}
    - time: 0.05
      value: {fileID: 21300000, guid: 40ac5bc34e2c69549859853f16d34e87, type: 3}
    - time: 0.06666667
      value: {fileID: 21300000, guid: 0e58c80c91a612842a6f39ef83113303, type: 3}
    - time: 0.083333336
      value: {fileID: 21300000, guid: 5d1f496a7a9b48142856b61838d01f2e, type: 3}
    - time: 0.1
      value: {fileID: 21300000, guid: a9126a8c917632341824055821e62876, type: 3}
    - time: 0.11666667
      value: {fileID: 21300000, guid: b2b6a0673a144254eb40c37c77ddf7e1, type: 3}
    - time: 0.13333334
      value: {fileID: 21300000, guid: 2f65c2f0a826c76448209485a561b90d, type: 3}
    - time: 0.15
      value: {fileID: 21300000, guid: 523010ff2f4f129419970657267164e4, type: 3}
    - time: 0.16666667
      value: {fileID: 21300000, guid: 724f254dc9868bd40b8a26c434edc9c4, type: 3}
    - time: 0.18333334
      value: {fileID: 21300000, guid: b88183998f223454d931542099f4f94a, type: 3}
    - time: 0.2
      value: {fileID: 21300000, guid: 7fbd754d8d11db34daac304949f98a18, type: 3}
    - time: 0.21666667
      value: {fileID: 21300000, guid: 8cb12956144ff53408ad1c80d2648295, type: 3}
    - time: 0.23333333
      value: {fileID: 21300000, guid: ef21451d2c3d17f41ab19ec8f5b7c3c4, type: 3}
    - time: 0.25
      value: {fileID: 21300000, guid: 3b7deb5235a906d4bac0e1a4589c7349, type: 3}
    - time: 0.26666668
      value: {fileID: 21300000, guid: cbaf4d79935fa7f4a903341433f943ac, type: 3}
    - time: 0.28333333
      value: {fileID: 21300000, guid: a470f3af8dd4bfa45bb7f2d0274fce6a, type: 3}
    - time: 0.3
      value: {fileID: 21300000, guid: dfa54810e182d5d4ea728f8e2dafe460, type: 3}
    - time: 0.31666666
      value: {fileID: 21300000, guid: 21803075714ba3d4da923d28b1df1cdd, type: 3}
    - time: 0.33333334
      value: {fileID: 21300000, guid: 8e13143a58b9f064cabbc7d8cb748d9a, type: 3}
    attribute: m_Sprite
    path: 
    classID: 212
    script: {fileID: 0}
  m_SampleRate: 60
  m_WrapMode: 0
  m_Bounds:
    m_Center: {x: 0, y: 0, z: 0}
    m_Extent: {x: 0, y: 0, z: 0}
  m_ClipBindingConstant:
    genericBindings:
    - serializedVersion: 2
      path: 0
      attribute: 0
      script: {fileID: 0}
      typeID: 212
      customType: 23
      isPPtrCurve: 1
    pptrCurveMapping:
    - {fileID: 21300000, guid: 192f64098ef468e4e8219879d0f01e55, type: 3}
    - {fileID: 21300000, guid: f7749d7337534bb468036a33cc2caa3c, type: 3}
    - {fileID: 21300000, guid: abd69e3102fa10e41b4d29581acc2296, type: 3}
    - {fileID: 21300000, guid: 40ac5bc34e2c69549859853f16d34e87, type: 3}
    - {fileID: 21300000, guid: 0e58c80c91a612842a6f39ef83113303, type: 3}
    - {fileID: 21300000, guid: 5d1f496a7a9b48142856b61838d01f2e, type: 3}
    - {fileID: 21300000, guid: a9126a8c917632341824055821e62876, type: 3}
    - {fileID: 21300000, guid: b2b6a0673a144254eb40c37c77ddf7e1, type: 3}
    - {fileID: 21300000, guid: 2f65c2f0a826c76448209485a561b90d, type: 3}
    - {fileID: 21300000, guid: 523010ff2f4f129419970657267164e4, type: 3}
    - {fileID: 21300000, guid: 724f254dc9868bd40b8a26c434edc9c4, type: 3}
    - {fileID: 21300000, guid: b88183998f223454d931542099f4f94a, type: 3}
    - {fileID: 21300000, guid: 7fbd754d8d11db34daac304949f98a18, type: 3}
    - {fileID: 21300000, guid: 8cb12956144ff53408ad1c80d2648295, type: 3}
    - {fileID: 21300000, guid: ef21451d2c3d17f41ab19ec8f5b7c3c4, type: 3}
    - {fileID: 21300000, guid: 3b7deb5235a906d4bac0e1a4589c7349, type: 3}
    - {fileID: 21300000, guid: cbaf4d79935fa7f4a903341433f943ac, type: 3}
    - {fileID: 21300000, guid: a470f3af8dd4bfa45bb7f2d0274fce6a, type: 3}
    - {fileID: 21300000, guid: dfa54810e182d5d4ea728f8e2dafe460, type: 3}
    - {fileID: 21300000, guid: 21803075714ba3d4da923d28b1df1cdd, type: 3}
    - {fileID: 21300000, guid: 8e13143a58b9f064cabbc7d8cb748d9a, type: 3}
  m_AnimationClipSettings:
    serializedVersion: 2
    m_AdditiveReferencePoseClip: {fileID: 0}
    m_AdditiveReferencePoseTime: 0
    m_StartTime: 0
    m_StopTime: 0.35000002
    m_OrientationOffsetY: 0
    m_Level: 0
    m_CycleOffset: 0
    m_HasAdditiveReferencePose: 0
    m_LoopTime: 1
    m_LoopBlend: 0
    m_LoopBlendOrientation: 0
    m_LoopBlendPositionY: 0
    m_LoopBlendPositionXZ: 0
    m_KeepOriginalOrientation: 0
    m_KeepOriginalPositionY: 1
    m_KeepOriginalPositionXZ: 0
    m_HeightFromFeet: 0
    m_Mirror: 0
  m_EditorCurves: []
  m_EulerEditorCurves: []
  m_HasGenericRootTransform: 0
  m_HasMotionFloatCurves: 0
  m_Events: []
