%YAML 1.1
%TAG !u! tag:unity3d.com,2011:
--- !u!74 &7400000
AnimationClip:
  m_ObjectHideFlags: 0
  m_CorrespondingSourceObject: {fileID: 0}
  m_PrefabInstance: {fileID: 0}
  m_PrefabAsset: {fileID: 0}
  m_Name: GUN
  serializedVersion: 7
  m_Legacy: 0
  m_Compressed: 0
  m_UseHighQualityCurve: 1
  m_RotationCurves: []
  m_CompressedRotationCurves: []
  m_EulerCurves: []
  m_PositionCurves: []
  m_ScaleCurves: []
  m_FloatCurves: []
  m_PPtrCurves:
  - curve:
    - time: 0
      value: {fileID: 21300000, guid: 3448b13a506b54647a2f9a711fff1402, type: 3}
    - time: 0.016666668
      value: {fileID: 21300000, guid: 687f3b855981cec49bc91d9d9c8c2dc3, type: 3}
    - time: 0.033333335
      value: {fileID: 21300000, guid: a5d45a015e82641488a3c96dae7dc871, type: 3}
    - time: 0.05
      value: {fileID: 21300000, guid: 43dfbbbf0b06aaa4ba06fd0d7188a3b8, type: 3}
    - time: 0.06666667
      value: {fileID: 21300000, guid: 9edeb7e1504a7b14b94c5057a5f6670a, type: 3}
    - time: 0.083333336
      value: {fileID: 21300000, guid: 75f9925361e17ec4ea64ba03adb97a1e, type: 3}
    - time: 0.1
      value: {fileID: 21300000, guid: f9d16938658177840b8b15440aac6ca6, type: 3}
    - time: 0.11666667
      value: {fileID: 21300000, guid: 472b7af7a2cfa4443a9b22a8464c7226, type: 3}
    - time: 0.13333334
      value: {fileID: 21300000, guid: f67ece756cf92c74e88bcf8ffccae79d, type: 3}
    - time: 0.15
      value: {fileID: 21300000, guid: f4ae4ad056c3b3c478b7e753faaab0e7, type: 3}
    - time: 0.16666667
      value: {fileID: 21300000, guid: 029104ffc2aa4bd4fa5b8c85337537bf, type: 3}
    - time: 0.18333334
      value: {fileID: 21300000, guid: 85ecc67502e576f46ad611503610e449, type: 3}
    - time: 0.2
      value: {fileID: 21300000, guid: 1e068c0f72d6c314683cbe646fcfe20f, type: 3}
    - time: 0.21666667
      value: {fileID: 21300000, guid: b9ba91c512d46a844a07f381438f9dcd, type: 3}
    - time: 0.23333333
      value: {fileID: 21300000, guid: f55c98cea5474a643ba59a153a686648, type: 3}
    - time: 0.25
      value: {fileID: 21300000, guid: 0ad518eaa557d22489238a0307bd080b, type: 3}
    - time: 0.26666668
      value: {fileID: 21300000, guid: d2fbdee302f250c489e71c8594dbbba8, type: 3}
    - time: 0.28333333
      value: {fileID: 21300000, guid: 5cb1f22d87f671043bcd989ba08fb24d, type: 3}
    - time: 0.3
      value: {fileID: 21300000, guid: 3adc9ba400f92e3408ad56ad3ba94c9a, type: 3}
    - time: 0.31666666
      value: {fileID: 21300000, guid: 88c75ef6e35018f48bb798def7d99e82, type: 3}
    - time: 0.33333334
      value: {fileID: 21300000, guid: d648fad095341314f9eb053ea4dc4b25, type: 3}
    - time: 0.35
      value: {fileID: 21300000, guid: 2b784625f85ffb3428f57e20e0f92808, type: 3}
    - time: 0.36666667
      value: {fileID: 21300000, guid: 8cf3f44d3fb0cee4797db6aaaaa6a734, type: 3}
    - time: 0.38333333
      value: {fileID: 21300000, guid: 385561bee2bb24a4eb1d2c861e713841, type: 3}
    - time: 0.4
      value: {fileID: 21300000, guid: 8cf3f44d3fb0cee4797db6aaaaa6a734, type: 3}
    - time: 0.41666666
      value: {fileID: 21300000, guid: 2b784625f85ffb3428f57e20e0f92808, type: 3}
    - time: 0.43333334
      value: {fileID: 21300000, guid: d648fad095341314f9eb053ea4dc4b25, type: 3}
    - time: 0.45
      value: {fileID: 21300000, guid: 88c75ef6e35018f48bb798def7d99e82, type: 3}
    - time: 0.46666667
      value: {fileID: 21300000, guid: 3adc9ba400f92e3408ad56ad3ba94c9a, type: 3}
    - time: 0.48333332
      value: {fileID: 21300000, guid: 5cb1f22d87f671043bcd989ba08fb24d, type: 3}
    - time: 0.5
      value: {fileID: 21300000, guid: d2fbdee302f250c489e71c8594dbbba8, type: 3}
    - time: 0.51666665
      value: {fileID: 21300000, guid: 0ad518eaa557d22489238a0307bd080b, type: 3}
    - time: 0.53333336
      value: {fileID: 21300000, guid: f55c98cea5474a643ba59a153a686648, type: 3}
    - time: 0.55
      value: {fileID: 21300000, guid: b9ba91c512d46a844a07f381438f9dcd, type: 3}
    - time: 0.56666666
      value: {fileID: 21300000, guid: 1e068c0f72d6c314683cbe646fcfe20f, type: 3}
    - time: 0.5833333
      value: {fileID: 21300000, guid: 85ecc67502e576f46ad611503610e449, type: 3}
    - time: 0.6
      value: {fileID: 21300000, guid: 029104ffc2aa4bd4fa5b8c85337537bf, type: 3}
    - time: 0.6166667
      value: {fileID: 21300000, guid: f4ae4ad056c3b3c478b7e753faaab0e7, type: 3}
    - time: 0.6333333
      value: {fileID: 21300000, guid: f67ece756cf92c74e88bcf8ffccae79d, type: 3}
    - time: 0.65
      value: {fileID: 21300000, guid: 472b7af7a2cfa4443a9b22a8464c7226, type: 3}
    - time: 0.6666667
      value: {fileID: 21300000, guid: f9d16938658177840b8b15440aac6ca6, type: 3}
    - time: 0.68333334
      value: {fileID: 21300000, guid: 75f9925361e17ec4ea64ba03adb97a1e, type: 3}
    - time: 0.7
      value: {fileID: 21300000, guid: 9edeb7e1504a7b14b94c5057a5f6670a, type: 3}
    - time: 0.71666664
      value: {fileID: 21300000, guid: 43dfbbbf0b06aaa4ba06fd0d7188a3b8, type: 3}
    - time: 0.73333335
      value: {fileID: 21300000, guid: a5d45a015e82641488a3c96dae7dc871, type: 3}
    - time: 0.75
      value: {fileID: 21300000, guid: 687f3b855981cec49bc91d9d9c8c2dc3, type: 3}
    - time: 0.76666665
      value: {fileID: 21300000, guid: 3448b13a506b54647a2f9a711fff1402, type: 3}
    attribute: m_Sprite
    path: 
    classID: 212
    script: {fileID: 0}
  m_SampleRate: 60
  m_WrapMode: 0
  m_Bounds:
    m_Center: {x: 0, y: 0, z: 0}
    m_Extent: {x: 0, y: 0, z: 0}
  m_ClipBindingConstant:
    genericBindings:
    - serializedVersion: 2
      path: 0
      attribute: 0
      script: {fileID: 0}
      typeID: 212
      customType: 23
      isPPtrCurve: 1
    pptrCurveMapping:
    - {fileID: 21300000, guid: 3448b13a506b54647a2f9a711fff1402, type: 3}
    - {fileID: 21300000, guid: 687f3b855981cec49bc91d9d9c8c2dc3, type: 3}
    - {fileID: 21300000, guid: a5d45a015e82641488a3c96dae7dc871, type: 3}
    - {fileID: 21300000, guid: 43dfbbbf0b06aaa4ba06fd0d7188a3b8, type: 3}
    - {fileID: 21300000, guid: 9edeb7e1504a7b14b94c5057a5f6670a, type: 3}
    - {fileID: 21300000, guid: 75f9925361e17ec4ea64ba03adb97a1e, type: 3}
    - {fileID: 21300000, guid: f9d16938658177840b8b15440aac6ca6, type: 3}
    - {fileID: 21300000, guid: 472b7af7a2cfa4443a9b22a8464c7226, type: 3}
    - {fileID: 21300000, guid: f67ece756cf92c74e88bcf8ffccae79d, type: 3}
    - {fileID: 21300000, guid: f4ae4ad056c3b3c478b7e753faaab0e7, type: 3}
    - {fileID: 21300000, guid: 029104ffc2aa4bd4fa5b8c85337537bf, type: 3}
    - {fileID: 21300000, guid: 85ecc67502e576f46ad611503610e449, type: 3}
    - {fileID: 21300000, guid: 1e068c0f72d6c314683cbe646fcfe20f, type: 3}
    - {fileID: 21300000, guid: b9ba91c512d46a844a07f381438f9dcd, type: 3}
    - {fileID: 21300000, guid: f55c98cea5474a643ba59a153a686648, type: 3}
    - {fileID: 21300000, guid: 0ad518eaa557d22489238a0307bd080b, type: 3}
    - {fileID: 21300000, guid: d2fbdee302f250c489e71c8594dbbba8, type: 3}
    - {fileID: 21300000, guid: 5cb1f22d87f671043bcd989ba08fb24d, type: 3}
    - {fileID: 21300000, guid: 3adc9ba400f92e3408ad56ad3ba94c9a, type: 3}
    - {fileID: 21300000, guid: 88c75ef6e35018f48bb798def7d99e82, type: 3}
    - {fileID: 21300000, guid: d648fad095341314f9eb053ea4dc4b25, type: 3}
    - {fileID: 21300000, guid: 2b784625f85ffb3428f57e20e0f92808, type: 3}
    - {fileID: 21300000, guid: 8cf3f44d3fb0cee4797db6aaaaa6a734, type: 3}
    - {fileID: 21300000, guid: 385561bee2bb24a4eb1d2c861e713841, type: 3}
    - {fileID: 21300000, guid: 8cf3f44d3fb0cee4797db6aaaaa6a734, type: 3}
    - {fileID: 21300000, guid: 2b784625f85ffb3428f57e20e0f92808, type: 3}
    - {fileID: 21300000, guid: d648fad095341314f9eb053ea4dc4b25, type: 3}
    - {fileID: 21300000, guid: 88c75ef6e35018f48bb798def7d99e82, type: 3}
    - {fileID: 21300000, guid: 3adc9ba400f92e3408ad56ad3ba94c9a, type: 3}
    - {fileID: 21300000, guid: 5cb1f22d87f671043bcd989ba08fb24d, type: 3}
    - {fileID: 21300000, guid: d2fbdee302f250c489e71c8594dbbba8, type: 3}
    - {fileID: 21300000, guid: 0ad518eaa557d22489238a0307bd080b, type: 3}
    - {fileID: 21300000, guid: f55c98cea5474a643ba59a153a686648, type: 3}
    - {fileID: 21300000, guid: b9ba91c512d46a844a07f381438f9dcd, type: 3}
    - {fileID: 21300000, guid: 1e068c0f72d6c314683cbe646fcfe20f, type: 3}
    - {fileID: 21300000, guid: 85ecc67502e576f46ad611503610e449, type: 3}
    - {fileID: 21300000, guid: 029104ffc2aa4bd4fa5b8c85337537bf, type: 3}
    - {fileID: 21300000, guid: f4ae4ad056c3b3c478b7e753faaab0e7, type: 3}
    - {fileID: 21300000, guid: f67ece756cf92c74e88bcf8ffccae79d, type: 3}
    - {fileID: 21300000, guid: 472b7af7a2cfa4443a9b22a8464c7226, type: 3}
    - {fileID: 21300000, guid: f9d16938658177840b8b15440aac6ca6, type: 3}
    - {fileID: 21300000, guid: 75f9925361e17ec4ea64ba03adb97a1e, type: 3}
    - {fileID: 21300000, guid: 9edeb7e1504a7b14b94c5057a5f6670a, type: 3}
    - {fileID: 21300000, guid: 43dfbbbf0b06aaa4ba06fd0d7188a3b8, type: 3}
    - {fileID: 21300000, guid: a5d45a015e82641488a3c96dae7dc871, type: 3}
    - {fileID: 21300000, guid: 687f3b855981cec49bc91d9d9c8c2dc3, type: 3}
    - {fileID: 21300000, guid: 3448b13a506b54647a2f9a711fff1402, type: 3}
  m_AnimationClipSettings:
    serializedVersion: 2
    m_AdditiveReferencePoseClip: {fileID: 0}
    m_AdditiveReferencePoseTime: 0
    m_StartTime: 0
    m_StopTime: 0.7833333
    m_OrientationOffsetY: 0
    m_Level: 0
    m_CycleOffset: 0
    m_HasAdditiveReferencePose: 0
    m_LoopTime: 1
    m_LoopBlend: 0
    m_LoopBlendOrientation: 0
    m_LoopBlendPositionY: 0
    m_LoopBlendPositionXZ: 0
    m_KeepOriginalOrientation: 0
    m_KeepOriginalPositionY: 1
    m_KeepOriginalPositionXZ: 0
    m_HeightFromFeet: 0
    m_Mirror: 0
  m_EditorCurves: []
  m_EulerEditorCurves: []
  m_HasGenericRootTransform: 0
  m_HasMotionFloatCurves: 0
  m_Events: []
