%YAML 1.1
%TAG !u! tag:unity3d.com,2011:
--- !u!74 &7400000
AnimationClip:
  m_ObjectHideFlags: 0
  m_CorrespondingSourceObject: {fileID: 0}
  m_PrefabInstance: {fileID: 0}
  m_PrefabAsset: {fileID: 0}
  m_Name: Death
  serializedVersion: 7
  m_Legacy: 0
  m_Compressed: 0
  m_UseHighQualityCurve: 1
  m_RotationCurves: []
  m_CompressedRotationCurves: []
  m_EulerCurves: []
  m_PositionCurves: []
  m_ScaleCurves: []
  m_FloatCurves: []
  m_PPtrCurves:
  - curve:
    - time: 0
      value: {fileID: 21300000, guid: b20e414503611d3498f90f067078b89e, type: 3}
    - time: 0.033333335
      value: {fileID: 21300000, guid: 74e78f072e4c1074b8e2a1414d885a82, type: 3}
    - time: 0.06666667
      value: {fileID: 21300000, guid: 45f886e81765fbb4fa4ddddd556a075c, type: 3}
    - time: 0.1
      value: {fileID: 21300000, guid: 693e824a5fc98b74f96cd54feddc1765, type: 3}
    - time: 0.13333334
      value: {fileID: 21300000, guid: bdc6a2d52f8634646b93eb05f4c32f1b, type: 3}
    - time: 0.16666667
      value: {fileID: 21300000, guid: a57dbc98bf69bc745839d4356e7faba5, type: 3}
    - time: 0.2
      value: {fileID: 21300000, guid: 898ddcca2f125ae46b0f60ad77698730, type: 3}
    - time: 0.23333333
      value: {fileID: 21300000, guid: d176542536966204cb550d80e4a2271a, type: 3}
    - time: 0.26666668
      value: {fileID: 21300000, guid: 454dcb350d95f9945a84705b71e78a53, type: 3}
    - time: 0.3
      value: {fileID: 21300000, guid: c8b642ccb2445514db22ba1ccf3dd7a4, type: 3}
    - time: 0.33333334
      value: {fileID: 21300000, guid: 537d09a5184838447ba4e83953ea2c00, type: 3}
    - time: 0.36666667
      value: {fileID: 21300000, guid: a696389bb8a413c45a600fc9d7380aa3, type: 3}
    - time: 0.4
      value: {fileID: 21300000, guid: 9ca6f2bd5fac68c4b9aefde255af4c4a, type: 3}
    - time: 0.43333334
      value: {fileID: 21300000, guid: 411bd60b273ce654d8ef5f655e178bcf, type: 3}
    - time: 0.46666667
      value: {fileID: 21300000, guid: 182aadcdb40ea8543b38725aa78ffeb4, type: 3}
    - time: 0.5
      value: {fileID: 21300000, guid: 31b16bcb64e483b43a546b48a2f35b1a, type: 3}
    - time: 0.53333336
      value: {fileID: 21300000, guid: 70bf488925fe15042950b6ec578b5078, type: 3}
    - time: 0.56666666
      value: {fileID: 21300000, guid: 2b1bbbcd8c1bc1042add0aa7538ca665, type: 3}
    - time: 0.6
      value: {fileID: 21300000, guid: 307725d8e51193e46ab9795788d74f22, type: 3}
    - time: 0.6333333
      value: {fileID: 21300000, guid: e3e5860d5f129194ba3599621b271f74, type: 3}
    - time: 0.6666667
      value: {fileID: 21300000, guid: 8db7d5a34263bb043b2e9a1948d97e75, type: 3}
    - time: 0.7
      value: {fileID: 21300000, guid: b93d7a058ea021b47943b505feed27e7, type: 3}
    - time: 0.73333335
      value: {fileID: 21300000, guid: 2d301f4d08d58aa4daf50cef065a8d3a, type: 3}
    attribute: m_Sprite
    path: 
    classID: 212
    script: {fileID: 0}
  m_SampleRate: 60
  m_WrapMode: 0
  m_Bounds:
    m_Center: {x: 0, y: 0, z: 0}
    m_Extent: {x: 0, y: 0, z: 0}
  m_ClipBindingConstant:
    genericBindings:
    - serializedVersion: 2
      path: 0
      attribute: 0
      script: {fileID: 0}
      typeID: 212
      customType: 23
      isPPtrCurve: 1
    pptrCurveMapping:
    - {fileID: 21300000, guid: b20e414503611d3498f90f067078b89e, type: 3}
    - {fileID: 21300000, guid: 74e78f072e4c1074b8e2a1414d885a82, type: 3}
    - {fileID: 21300000, guid: 45f886e81765fbb4fa4ddddd556a075c, type: 3}
    - {fileID: 21300000, guid: 693e824a5fc98b74f96cd54feddc1765, type: 3}
    - {fileID: 21300000, guid: bdc6a2d52f8634646b93eb05f4c32f1b, type: 3}
    - {fileID: 21300000, guid: a57dbc98bf69bc745839d4356e7faba5, type: 3}
    - {fileID: 21300000, guid: 898ddcca2f125ae46b0f60ad77698730, type: 3}
    - {fileID: 21300000, guid: d176542536966204cb550d80e4a2271a, type: 3}
    - {fileID: 21300000, guid: 454dcb350d95f9945a84705b71e78a53, type: 3}
    - {fileID: 21300000, guid: c8b642ccb2445514db22ba1ccf3dd7a4, type: 3}
    - {fileID: 21300000, guid: 537d09a5184838447ba4e83953ea2c00, type: 3}
    - {fileID: 21300000, guid: a696389bb8a413c45a600fc9d7380aa3, type: 3}
    - {fileID: 21300000, guid: 9ca6f2bd5fac68c4b9aefde255af4c4a, type: 3}
    - {fileID: 21300000, guid: 411bd60b273ce654d8ef5f655e178bcf, type: 3}
    - {fileID: 21300000, guid: 182aadcdb40ea8543b38725aa78ffeb4, type: 3}
    - {fileID: 21300000, guid: 31b16bcb64e483b43a546b48a2f35b1a, type: 3}
    - {fileID: 21300000, guid: 70bf488925fe15042950b6ec578b5078, type: 3}
    - {fileID: 21300000, guid: 2b1bbbcd8c1bc1042add0aa7538ca665, type: 3}
    - {fileID: 21300000, guid: 307725d8e51193e46ab9795788d74f22, type: 3}
    - {fileID: 21300000, guid: e3e5860d5f129194ba3599621b271f74, type: 3}
    - {fileID: 21300000, guid: 8db7d5a34263bb043b2e9a1948d97e75, type: 3}
    - {fileID: 21300000, guid: b93d7a058ea021b47943b505feed27e7, type: 3}
    - {fileID: 21300000, guid: 2d301f4d08d58aa4daf50cef065a8d3a, type: 3}
  m_AnimationClipSettings:
    serializedVersion: 2
    m_AdditiveReferencePoseClip: {fileID: 0}
    m_AdditiveReferencePoseTime: 0
    m_StartTime: 0
    m_StopTime: 0.75
    m_OrientationOffsetY: 0
    m_Level: 0
    m_CycleOffset: 0
    m_HasAdditiveReferencePose: 0
    m_LoopTime: 1
    m_LoopBlend: 0
    m_LoopBlendOrientation: 0
    m_LoopBlendPositionY: 0
    m_LoopBlendPositionXZ: 0
    m_KeepOriginalOrientation: 0
    m_KeepOriginalPositionY: 1
    m_KeepOriginalPositionXZ: 0
    m_HeightFromFeet: 0
    m_Mirror: 0
  m_EditorCurves: []
  m_EulerEditorCurves: []
  m_HasGenericRootTransform: 0
  m_HasMotionFloatCurves: 0
  m_Events: []
