%YAML 1.1
%TAG !u! tag:unity3d.com,2011:
--- !u!74 &7400000
AnimationClip:
  m_ObjectHideFlags: 0
  m_CorrespondingSourceObject: {fileID: 0}
  m_PrefabInstance: {fileID: 0}
  m_PrefabAsset: {fileID: 0}
  m_Name: death
  serializedVersion: 7
  m_Legacy: 0
  m_Compressed: 0
  m_UseHighQualityCurve: 1
  m_RotationCurves: []
  m_CompressedRotationCurves: []
  m_EulerCurves: []
  m_PositionCurves: []
  m_ScaleCurves: []
  m_FloatCurves: []
  m_PPtrCurves:
  - curve:
    - time: 0
      value: {fileID: 21300000, guid: a201728823a988343948402620517a8f, type: 3}
    - time: 0.033333335
      value: {fileID: 21300000, guid: ec781be19ad058243a228e6728e2d306, type: 3}
    - time: 0.06666667
      value: {fileID: 21300000, guid: efb992aef5827d24981da26d25ed1c23, type: 3}
    - time: 0.1
      value: {fileID: 21300000, guid: 97d2145a4685e964b83dc1793cea7f0a, type: 3}
    - time: 0.13333334
      value: {fileID: 21300000, guid: f39ac66228d2d594dbfb6ecefcb7fcf1, type: 3}
    - time: 0.16666667
      value: {fileID: 21300000, guid: ee220094b48d1854ba488a91b70349ce, type: 3}
    - time: 0.2
      value: {fileID: 21300000, guid: 5786a7678b495d54ba96a97332594c28, type: 3}
    - time: 0.23333333
      value: {fileID: 21300000, guid: 289f5516cfc86f749820cab2ffc26c99, type: 3}
    - time: 0.26666668
      value: {fileID: 21300000, guid: 5a58c2ba04dd0af469502738bff5001c, type: 3}
    - time: 0.3
      value: {fileID: 21300000, guid: 8ddcab5fdd3a49141b2ab5e8eb9fde0c, type: 3}
    - time: 0.33333334
      value: {fileID: 21300000, guid: 4cc52c8d031dde543b003f66e3ec7414, type: 3}
    - time: 0.36666667
      value: {fileID: 21300000, guid: bbce84b87c2242e43a2b52028b60cb5e, type: 3}
    - time: 0.4
      value: {fileID: 21300000, guid: 265d0505121e080459559ee51e648e3a, type: 3}
    - time: 0.43333334
      value: {fileID: 21300000, guid: 4cefbee4363a5064e976134e741a9fc3, type: 3}
    - time: 0.46666667
      value: {fileID: 21300000, guid: 989a68df262f61349845d53bf6090860, type: 3}
    - time: 1.1666666
      value: {fileID: 21300000, guid: 989a68df262f61349845d53bf6090860, type: 3}
    attribute: m_Sprite
    path: 
    classID: 212
    script: {fileID: 0}
  m_SampleRate: 30
  m_WrapMode: 0
  m_Bounds:
    m_Center: {x: 0, y: 0, z: 0}
    m_Extent: {x: 0, y: 0, z: 0}
  m_ClipBindingConstant:
    genericBindings:
    - serializedVersion: 2
      path: 0
      attribute: 0
      script: {fileID: 0}
      typeID: 212
      customType: 23
      isPPtrCurve: 1
    pptrCurveMapping:
    - {fileID: 21300000, guid: a201728823a988343948402620517a8f, type: 3}
    - {fileID: 21300000, guid: ec781be19ad058243a228e6728e2d306, type: 3}
    - {fileID: 21300000, guid: efb992aef5827d24981da26d25ed1c23, type: 3}
    - {fileID: 21300000, guid: 97d2145a4685e964b83dc1793cea7f0a, type: 3}
    - {fileID: 21300000, guid: f39ac66228d2d594dbfb6ecefcb7fcf1, type: 3}
    - {fileID: 21300000, guid: ee220094b48d1854ba488a91b70349ce, type: 3}
    - {fileID: 21300000, guid: 5786a7678b495d54ba96a97332594c28, type: 3}
    - {fileID: 21300000, guid: 289f5516cfc86f749820cab2ffc26c99, type: 3}
    - {fileID: 21300000, guid: 5a58c2ba04dd0af469502738bff5001c, type: 3}
    - {fileID: 21300000, guid: 8ddcab5fdd3a49141b2ab5e8eb9fde0c, type: 3}
    - {fileID: 21300000, guid: 4cc52c8d031dde543b003f66e3ec7414, type: 3}
    - {fileID: 21300000, guid: bbce84b87c2242e43a2b52028b60cb5e, type: 3}
    - {fileID: 21300000, guid: 265d0505121e080459559ee51e648e3a, type: 3}
    - {fileID: 21300000, guid: 4cefbee4363a5064e976134e741a9fc3, type: 3}
    - {fileID: 21300000, guid: 989a68df262f61349845d53bf6090860, type: 3}
    - {fileID: 21300000, guid: 989a68df262f61349845d53bf6090860, type: 3}
  m_AnimationClipSettings:
    serializedVersion: 2
    m_AdditiveReferencePoseClip: {fileID: 0}
    m_AdditiveReferencePoseTime: 0
    m_StartTime: 0
    m_StopTime: 1.1999999
    m_OrientationOffsetY: 0
    m_Level: 0
    m_CycleOffset: 0
    m_HasAdditiveReferencePose: 0
    m_LoopTime: 1
    m_LoopBlend: 0
    m_LoopBlendOrientation: 0
    m_LoopBlendPositionY: 0
    m_LoopBlendPositionXZ: 0
    m_KeepOriginalOrientation: 0
    m_KeepOriginalPositionY: 1
    m_KeepOriginalPositionXZ: 0
    m_HeightFromFeet: 0
    m_Mirror: 0
  m_EditorCurves: []
  m_EulerEditorCurves: []
  m_HasGenericRootTransform: 0
  m_HasMotionFloatCurves: 0
  m_Events: []
