%YAML 1.1
%TAG !u! tag:unity3d.com,2011:
--- !u!1045 &1
EditorBuildSettings:
  m_ObjectHideFlags: 0
  serializedVersion: 2
  m_Scenes:
  - enabled: 1
    path: Assets/ProjectAssets/Scenes/Sandbox.unity
    guid: 50c004269b4463e43abed03aacb032f7
  - enabled: 0
    path: Assets/ProjectAssets/Scenes/Login.unity
    guid: ebc3f1a667fdb594f812028165510a58
  - enabled: 0
    path: Assets/ProjectAssets/Scenes/LEVEL-1.unity
    guid: aa0d68ec907993b44b4458e0fe8be64b
  m_configObjects: {}
