%YAML 1.1
%TAG !u! tag:unity3d.com,2011:
--- !u!1 &4630827102925903474
GameObject:
  m_ObjectHideFlags: 0
  m_CorrespondingSourceObject: {fileID: 0}
  m_PrefabInstance: {fileID: 0}
  m_PrefabAsset: {fileID: 0}
  serializedVersion: 6
  m_Component:
  - component: {fileID: 406799762702641600}
  - component: {fileID: 8519475809245339503}
  m_Layer: 0
  m_Name: New Palette 1
  m_TagString: Untagged
  m_Icon: {fileID: 0}
  m_NavMeshLayer: 0
  m_StaticEditorFlags: 0
  m_IsActive: 1
--- !u!4 &406799762702641600
Transform:
  m_ObjectHideFlags: 0
  m_CorrespondingSourceObject: {fileID: 0}
  m_PrefabInstance: {fileID: 0}
  m_PrefabAsset: {fileID: 0}
  m_GameObject: {fileID: 4630827102925903474}
  m_LocalRotation: {x: 0, y: 0, z: 0, w: 1}
  m_LocalPosition: {x: 0, y: 0, z: 0}
  m_LocalScale: {x: 1, y: 1, z: 1}
  m_ConstrainProportionsScale: 0
  m_Children:
  - {fileID: 140263929875089275}
  m_Father: {fileID: 0}
  m_RootOrder: 0
  m_LocalEulerAnglesHint: {x: 0, y: 0, z: 0}
--- !u!156049354 &8519475809245339503
Grid:
  m_ObjectHideFlags: 0
  m_CorrespondingSourceObject: {fileID: 0}
  m_PrefabInstance: {fileID: 0}
  m_PrefabAsset: {fileID: 0}
  m_GameObject: {fileID: 4630827102925903474}
  m_Enabled: 1
  m_CellSize: {x: 1, y: 1, z: 0}
  m_CellGap: {x: 0, y: 0, z: 0}
  m_CellLayout: 0
  m_CellSwizzle: 0
--- !u!1 &7990139901615398237
GameObject:
  m_ObjectHideFlags: 0
  m_CorrespondingSourceObject: {fileID: 0}
  m_PrefabInstance: {fileID: 0}
  m_PrefabAsset: {fileID: 0}
  serializedVersion: 6
  m_Component:
  - component: {fileID: 140263929875089275}
  - component: {fileID: 7563554913929364072}
  - component: {fileID: 8683184593549091989}
  m_Layer: 0
  m_Name: Layer1
  m_TagString: Untagged
  m_Icon: {fileID: 0}
  m_NavMeshLayer: 0
  m_StaticEditorFlags: 0
  m_IsActive: 1
--- !u!4 &140263929875089275
Transform:
  m_ObjectHideFlags: 0
  m_CorrespondingSourceObject: {fileID: 0}
  m_PrefabInstance: {fileID: 0}
  m_PrefabAsset: {fileID: 0}
  m_GameObject: {fileID: 7990139901615398237}
  m_LocalRotation: {x: -0, y: -0, z: -0, w: 1}
  m_LocalPosition: {x: 0, y: 0, z: 0}
  m_LocalScale: {x: 1, y: 1, z: 1}
  m_ConstrainProportionsScale: 0
  m_Children: []
  m_Father: {fileID: 406799762702641600}
  m_RootOrder: 0
  m_LocalEulerAnglesHint: {x: 0, y: 0, z: 0}
--- !u!1839735485 &7563554913929364072
Tilemap:
  m_ObjectHideFlags: 0
  m_CorrespondingSourceObject: {fileID: 0}
  m_PrefabInstance: {fileID: 0}
  m_PrefabAsset: {fileID: 0}
  m_GameObject: {fileID: 7990139901615398237}
  m_Enabled: 1
  m_Tiles:
  - first: {x: -2, y: -13, z: 0}
    second:
      serializedVersion: 2
      m_TileIndex: 34
      m_TileSpriteIndex: 34
      m_TileMatrixIndex: 0
      m_TileColorIndex: 0
      m_TileObjectToInstantiateIndex: 65535
      dummyAlignment: 0
      m_AllTileFlags: 1073741825
  - first: {x: 0, y: -13, z: 0}
    second:
      serializedVersion: 2
      m_TileIndex: 35
      m_TileSpriteIndex: 35
      m_TileMatrixIndex: 0
      m_TileColorIndex: 0
      m_TileObjectToInstantiateIndex: 65535
      dummyAlignment: 0
      m_AllTileFlags: 1073741825
  - first: {x: 2, y: -13, z: 0}
    second:
      serializedVersion: 2
      m_TileIndex: 36
      m_TileSpriteIndex: 36
      m_TileMatrixIndex: 0
      m_TileColorIndex: 0
      m_TileObjectToInstantiateIndex: 65535
      dummyAlignment: 0
      m_AllTileFlags: 1073741825
  - first: {x: 4, y: -13, z: 0}
    second:
      serializedVersion: 2
      m_TileIndex: 37
      m_TileSpriteIndex: 37
      m_TileMatrixIndex: 0
      m_TileColorIndex: 0
      m_TileObjectToInstantiateIndex: 65535
      dummyAlignment: 0
      m_AllTileFlags: 1073741825
  - first: {x: 2, y: -11, z: 0}
    second:
      serializedVersion: 2
      m_TileIndex: 33
      m_TileSpriteIndex: 33
      m_TileMatrixIndex: 0
      m_TileColorIndex: 0
      m_TileObjectToInstantiateIndex: 65535
      dummyAlignment: 0
      m_AllTileFlags: 1073741825
  - first: {x: -2, y: -8, z: 0}
    second:
      serializedVersion: 2
      m_TileIndex: 25
      m_TileSpriteIndex: 25
      m_TileMatrixIndex: 0
      m_TileColorIndex: 0
      m_TileObjectToInstantiateIndex: 65535
      dummyAlignment: 0
      m_AllTileFlags: 1073741825
  - first: {x: 0, y: -8, z: 0}
    second:
      serializedVersion: 2
      m_TileIndex: 23
      m_TileSpriteIndex: 23
      m_TileMatrixIndex: 0
      m_TileColorIndex: 0
      m_TileObjectToInstantiateIndex: 65535
      dummyAlignment: 0
      m_AllTileFlags: 1073741825
  - first: {x: 2, y: -8, z: 0}
    second:
      serializedVersion: 2
      m_TileIndex: 24
      m_TileSpriteIndex: 24
      m_TileMatrixIndex: 0
      m_TileColorIndex: 0
      m_TileObjectToInstantiateIndex: 65535
      dummyAlignment: 0
      m_AllTileFlags: 1073741825
  - first: {x: 4, y: -8, z: 0}
    second:
      serializedVersion: 2
      m_TileIndex: 29
      m_TileSpriteIndex: 29
      m_TileMatrixIndex: 0
      m_TileColorIndex: 0
      m_TileObjectToInstantiateIndex: 65535
      dummyAlignment: 0
      m_AllTileFlags: 1073741825
  - first: {x: 6, y: -8, z: 0}
    second:
      serializedVersion: 2
      m_TileIndex: 30
      m_TileSpriteIndex: 30
      m_TileMatrixIndex: 0
      m_TileColorIndex: 0
      m_TileObjectToInstantiateIndex: 65535
      dummyAlignment: 0
      m_AllTileFlags: 1073741825
  - first: {x: 9, y: -7, z: 0}
    second:
      serializedVersion: 2
      m_TileIndex: 31
      m_TileSpriteIndex: 31
      m_TileMatrixIndex: 0
      m_TileColorIndex: 0
      m_TileObjectToInstantiateIndex: 65535
      dummyAlignment: 0
      m_AllTileFlags: 1073741825
  - first: {x: 10, y: -7, z: 0}
    second:
      serializedVersion: 2
      m_TileIndex: 32
      m_TileSpriteIndex: 32
      m_TileMatrixIndex: 0
      m_TileColorIndex: 0
      m_TileObjectToInstantiateIndex: 65535
      dummyAlignment: 0
      m_AllTileFlags: 1073741825
  - first: {x: -2, y: -6, z: 0}
    second:
      serializedVersion: 2
      m_TileIndex: 22
      m_TileSpriteIndex: 22
      m_TileMatrixIndex: 0
      m_TileColorIndex: 0
      m_TileObjectToInstantiateIndex: 65535
      dummyAlignment: 0
      m_AllTileFlags: 1073741825
  - first: {x: 0, y: -6, z: 0}
    second:
      serializedVersion: 2
      m_TileIndex: 26
      m_TileSpriteIndex: 26
      m_TileMatrixIndex: 0
      m_TileColorIndex: 0
      m_TileObjectToInstantiateIndex: 65535
      dummyAlignment: 0
      m_AllTileFlags: 1073741825
  - first: {x: 2, y: -6, z: 0}
    second:
      serializedVersion: 2
      m_TileIndex: 27
      m_TileSpriteIndex: 27
      m_TileMatrixIndex: 0
      m_TileColorIndex: 0
      m_TileObjectToInstantiateIndex: 65535
      dummyAlignment: 0
      m_AllTileFlags: 1073741825
  - first: {x: 4, y: -6, z: 0}
    second:
      serializedVersion: 2
      m_TileIndex: 21
      m_TileSpriteIndex: 21
      m_TileMatrixIndex: 0
      m_TileColorIndex: 0
      m_TileObjectToInstantiateIndex: 65535
      dummyAlignment: 0
      m_AllTileFlags: 1073741825
  - first: {x: 6, y: -6, z: 0}
    second:
      serializedVersion: 2
      m_TileIndex: 28
      m_TileSpriteIndex: 28
      m_TileMatrixIndex: 0
      m_TileColorIndex: 0
      m_TileObjectToInstantiateIndex: 65535
      dummyAlignment: 0
      m_AllTileFlags: 1073741825
  - first: {x: -2, y: -4, z: 0}
    second:
      serializedVersion: 2
      m_TileIndex: 12
      m_TileSpriteIndex: 12
      m_TileMatrixIndex: 0
      m_TileColorIndex: 0
      m_TileObjectToInstantiateIndex: 65535
      dummyAlignment: 0
      m_AllTileFlags: 1073741825
  - first: {x: 0, y: -4, z: 0}
    second:
      serializedVersion: 2
      m_TileIndex: 13
      m_TileSpriteIndex: 13
      m_TileMatrixIndex: 0
      m_TileColorIndex: 0
      m_TileObjectToInstantiateIndex: 65535
      dummyAlignment: 0
      m_AllTileFlags: 1073741825
  - first: {x: 2, y: -4, z: 0}
    second:
      serializedVersion: 2
      m_TileIndex: 14
      m_TileSpriteIndex: 14
      m_TileMatrixIndex: 0
      m_TileColorIndex: 0
      m_TileObjectToInstantiateIndex: 65535
      dummyAlignment: 0
      m_AllTileFlags: 1073741825
  - first: {x: 4, y: -4, z: 0}
    second:
      serializedVersion: 2
      m_TileIndex: 15
      m_TileSpriteIndex: 15
      m_TileMatrixIndex: 0
      m_TileColorIndex: 0
      m_TileObjectToInstantiateIndex: 65535
      dummyAlignment: 0
      m_AllTileFlags: 1073741825
  - first: {x: 6, y: -4, z: 0}
    second:
      serializedVersion: 2
      m_TileIndex: 16
      m_TileSpriteIndex: 16
      m_TileMatrixIndex: 0
      m_TileColorIndex: 0
      m_TileObjectToInstantiateIndex: 65535
      dummyAlignment: 0
      m_AllTileFlags: 1073741825
  - first: {x: 8, y: -4, z: 0}
    second:
      serializedVersion: 2
      m_TileIndex: 17
      m_TileSpriteIndex: 17
      m_TileMatrixIndex: 0
      m_TileColorIndex: 0
      m_TileObjectToInstantiateIndex: 65535
      dummyAlignment: 0
      m_AllTileFlags: 1073741825
  - first: {x: 10, y: -4, z: 0}
    second:
      serializedVersion: 2
      m_TileIndex: 18
      m_TileSpriteIndex: 18
      m_TileMatrixIndex: 0
      m_TileColorIndex: 0
      m_TileObjectToInstantiateIndex: 65535
      dummyAlignment: 0
      m_AllTileFlags: 1073741825
  - first: {x: 12, y: -4, z: 0}
    second:
      serializedVersion: 2
      m_TileIndex: 19
      m_TileSpriteIndex: 19
      m_TileMatrixIndex: 0
      m_TileColorIndex: 0
      m_TileObjectToInstantiateIndex: 65535
      dummyAlignment: 0
      m_AllTileFlags: 1073741825
  - first: {x: 14, y: -4, z: 0}
    second:
      serializedVersion: 2
      m_TileIndex: 20
      m_TileSpriteIndex: 20
      m_TileMatrixIndex: 0
      m_TileColorIndex: 0
      m_TileObjectToInstantiateIndex: 65535
      dummyAlignment: 0
      m_AllTileFlags: 1073741825
  - first: {x: -2, y: -2, z: 0}
    second:
      serializedVersion: 2
      m_TileIndex: 0
      m_TileSpriteIndex: 0
      m_TileMatrixIndex: 0
      m_TileColorIndex: 0
      m_TileObjectToInstantiateIndex: 65535
      dummyAlignment: 0
      m_AllTileFlags: 1073741825
  - first: {x: 0, y: -2, z: 0}
    second:
      serializedVersion: 2
      m_TileIndex: 6
      m_TileSpriteIndex: 6
      m_TileMatrixIndex: 0
      m_TileColorIndex: 0
      m_TileObjectToInstantiateIndex: 65535
      dummyAlignment: 0
      m_AllTileFlags: 1073741825
  - first: {x: 2, y: -2, z: 0}
    second:
      serializedVersion: 2
      m_TileIndex: 7
      m_TileSpriteIndex: 7
      m_TileMatrixIndex: 0
      m_TileColorIndex: 0
      m_TileObjectToInstantiateIndex: 65535
      dummyAlignment: 0
      m_AllTileFlags: 1073741825
  - first: {x: 4, y: -2, z: 0}
    second:
      serializedVersion: 2
      m_TileIndex: 8
      m_TileSpriteIndex: 8
      m_TileMatrixIndex: 0
      m_TileColorIndex: 0
      m_TileObjectToInstantiateIndex: 65535
      dummyAlignment: 0
      m_AllTileFlags: 1073741825
  - first: {x: 6, y: -2, z: 0}
    second:
      serializedVersion: 2
      m_TileIndex: 1
      m_TileSpriteIndex: 1
      m_TileMatrixIndex: 0
      m_TileColorIndex: 0
      m_TileObjectToInstantiateIndex: 65535
      dummyAlignment: 0
      m_AllTileFlags: 1073741825
  - first: {x: 8, y: -2, z: 0}
    second:
      serializedVersion: 2
      m_TileIndex: 9
      m_TileSpriteIndex: 9
      m_TileMatrixIndex: 0
      m_TileColorIndex: 0
      m_TileObjectToInstantiateIndex: 65535
      dummyAlignment: 0
      m_AllTileFlags: 1073741825
  - first: {x: 10, y: -2, z: 0}
    second:
      serializedVersion: 2
      m_TileIndex: 10
      m_TileSpriteIndex: 10
      m_TileMatrixIndex: 0
      m_TileColorIndex: 0
      m_TileObjectToInstantiateIndex: 65535
      dummyAlignment: 0
      m_AllTileFlags: 1073741825
  - first: {x: 12, y: -2, z: 0}
    second:
      serializedVersion: 2
      m_TileIndex: 11
      m_TileSpriteIndex: 11
      m_TileMatrixIndex: 0
      m_TileColorIndex: 0
      m_TileObjectToInstantiateIndex: 65535
      dummyAlignment: 0
      m_AllTileFlags: 1073741825
  - first: {x: -2, y: 0, z: 0}
    second:
      serializedVersion: 2
      m_TileIndex: 4
      m_TileSpriteIndex: 4
      m_TileMatrixIndex: 0
      m_TileColorIndex: 0
      m_TileObjectToInstantiateIndex: 65535
      dummyAlignment: 0
      m_AllTileFlags: 1073741825
  - first: {x: -1, y: 0, z: 0}
    second:
      serializedVersion: 2
      m_TileIndex: 5
      m_TileSpriteIndex: 5
      m_TileMatrixIndex: 0
      m_TileColorIndex: 0
      m_TileObjectToInstantiateIndex: 65535
      dummyAlignment: 0
      m_AllTileFlags: 1073741825
  - first: {x: 2, y: 0, z: 0}
    second:
      serializedVersion: 2
      m_TileIndex: 42
      m_TileSpriteIndex: 42
      m_TileMatrixIndex: 0
      m_TileColorIndex: 0
      m_TileObjectToInstantiateIndex: 65535
      dummyAlignment: 0
      m_AllTileFlags: 1073741825
  - first: {x: 4, y: 0, z: 0}
    second:
      serializedVersion: 2
      m_TileIndex: 43
      m_TileSpriteIndex: 43
      m_TileMatrixIndex: 0
      m_TileColorIndex: 0
      m_TileObjectToInstantiateIndex: 65535
      dummyAlignment: 0
      m_AllTileFlags: 1073741825
  - first: {x: 6, y: 0, z: 0}
    second:
      serializedVersion: 2
      m_TileIndex: 44
      m_TileSpriteIndex: 44
      m_TileMatrixIndex: 0
      m_TileColorIndex: 0
      m_TileObjectToInstantiateIndex: 65535
      dummyAlignment: 0
      m_AllTileFlags: 1073741825
  - first: {x: 8, y: 0, z: 0}
    second:
      serializedVersion: 2
      m_TileIndex: 45
      m_TileSpriteIndex: 45
      m_TileMatrixIndex: 0
      m_TileColorIndex: 0
      m_TileObjectToInstantiateIndex: 65535
      dummyAlignment: 0
      m_AllTileFlags: 1073741825
  - first: {x: -2, y: 1, z: 0}
    second:
      serializedVersion: 2
      m_TileIndex: 2
      m_TileSpriteIndex: 2
      m_TileMatrixIndex: 0
      m_TileColorIndex: 0
      m_TileObjectToInstantiateIndex: 65535
      dummyAlignment: 0
      m_AllTileFlags: 1073741825
  - first: {x: -1, y: 1, z: 0}
    second:
      serializedVersion: 2
      m_TileIndex: 3
      m_TileSpriteIndex: 3
      m_TileMatrixIndex: 0
      m_TileColorIndex: 0
      m_TileObjectToInstantiateIndex: 65535
      dummyAlignment: 0
      m_AllTileFlags: 1073741825
  - first: {x: 2, y: 2, z: 0}
    second:
      serializedVersion: 2
      m_TileIndex: 38
      m_TileSpriteIndex: 38
      m_TileMatrixIndex: 0
      m_TileColorIndex: 0
      m_TileObjectToInstantiateIndex: 65535
      dummyAlignment: 0
      m_AllTileFlags: 1073741825
  - first: {x: 4, y: 2, z: 0}
    second:
      serializedVersion: 2
      m_TileIndex: 39
      m_TileSpriteIndex: 39
      m_TileMatrixIndex: 0
      m_TileColorIndex: 0
      m_TileObjectToInstantiateIndex: 65535
      dummyAlignment: 0
      m_AllTileFlags: 1073741825
  - first: {x: 6, y: 2, z: 0}
    second:
      serializedVersion: 2
      m_TileIndex: 40
      m_TileSpriteIndex: 40
      m_TileMatrixIndex: 0
      m_TileColorIndex: 0
      m_TileObjectToInstantiateIndex: 65535
      dummyAlignment: 0
      m_AllTileFlags: 1073741825
  - first: {x: 8, y: 2, z: 0}
    second:
      serializedVersion: 2
      m_TileIndex: 41
      m_TileSpriteIndex: 41
      m_TileMatrixIndex: 0
      m_TileColorIndex: 0
      m_TileObjectToInstantiateIndex: 65535
      dummyAlignment: 0
      m_AllTileFlags: 1073741825
  m_AnimatedTiles: {}
  m_TileAssetArray:
  - m_RefCount: 1
    m_Data: {fileID: 11400000, guid: f90781f27fa2b4348bd0b29effd06d6a, type: 2}
  - m_RefCount: 1
    m_Data: {fileID: 11400000, guid: 69ce006e6a72ba74193d99c92e909397, type: 2}
  - m_RefCount: 1
    m_Data: {fileID: 11400000, guid: 0f3316b933737e143a1f08b9da7d3587, type: 2}
  - m_RefCount: 1
    m_Data: {fileID: 11400000, guid: f86c8db937ef54749aaf5d02e22dedeb, type: 2}
  - m_RefCount: 1
    m_Data: {fileID: 11400000, guid: 82f0d7110026b1e4db4a08f8d90bd339, type: 2}
  - m_RefCount: 1
    m_Data: {fileID: 11400000, guid: bda4d6022ddb6d84c9cf255ab8c779e3, type: 2}
  - m_RefCount: 1
    m_Data: {fileID: 11400000, guid: 9d73d2bbbecc0684c998bb70f1e05472, type: 2}
  - m_RefCount: 1
    m_Data: {fileID: 11400000, guid: 3f3cbc7d384b6364c93b6503c2acae86, type: 2}
  - m_RefCount: 1
    m_Data: {fileID: 11400000, guid: 9863cdb031d5d274685fec70c8b27695, type: 2}
  - m_RefCount: 1
    m_Data: {fileID: 11400000, guid: c0f2ba1d5d569d645b684dd7dd267836, type: 2}
  - m_RefCount: 1
    m_Data: {fileID: 11400000, guid: 58f83b91a13f77f4d99a7511a23eef17, type: 2}
  - m_RefCount: 1
    m_Data: {fileID: 11400000, guid: 9bc33c1c2716f394f94bf31ab3e355f9, type: 2}
  - m_RefCount: 1
    m_Data: {fileID: 11400000, guid: 13d19c0907116d54dbcff32449fae64b, type: 2}
  - m_RefCount: 1
    m_Data: {fileID: 11400000, guid: 3c8e7f719a865eb44930e3ce5c0e990a, type: 2}
  - m_RefCount: 1
    m_Data: {fileID: 11400000, guid: 5ec18efec923b5d4aa54844f3c433e8a, type: 2}
  - m_RefCount: 1
    m_Data: {fileID: 11400000, guid: de9cb960f0193ad4d944a5bc880f60f6, type: 2}
  - m_RefCount: 1
    m_Data: {fileID: 11400000, guid: 9b2d3c3923cd8b54b8fb68ed82e9287b, type: 2}
  - m_RefCount: 1
    m_Data: {fileID: 11400000, guid: 1b35068e3658239488c8f3292e1d7bd4, type: 2}
  - m_RefCount: 1
    m_Data: {fileID: 11400000, guid: 4ef85ddecd55cc44eae93dad40f115b6, type: 2}
  - m_RefCount: 1
    m_Data: {fileID: 11400000, guid: b3d4f77319970734588369d13fcd62ea, type: 2}
  - m_RefCount: 1
    m_Data: {fileID: 11400000, guid: 674027eb8665c7048978bd7d269ee8d1, type: 2}
  - m_RefCount: 1
    m_Data: {fileID: 11400000, guid: df549003a68e48140ab8c56e40c23ec0, type: 2}
  - m_RefCount: 1
    m_Data: {fileID: 11400000, guid: 4547d838cff1c2449bbf1d6b2947e5af, type: 2}
  - m_RefCount: 1
    m_Data: {fileID: 11400000, guid: b8c73c035c75924429c5022ec4007709, type: 2}
  - m_RefCount: 1
    m_Data: {fileID: 11400000, guid: 0c549071f3cbad2419cb46cce5c0983e, type: 2}
  - m_RefCount: 1
    m_Data: {fileID: 11400000, guid: c47075d12f669c540b00caf9f7447838, type: 2}
  - m_RefCount: 1
    m_Data: {fileID: 11400000, guid: cc92ca5272b80004dad4ab435a1b72e8, type: 2}
  - m_RefCount: 1
    m_Data: {fileID: 11400000, guid: b58982aff267e1045b52a6e63da1b060, type: 2}
  - m_RefCount: 1
    m_Data: {fileID: 11400000, guid: b450ced2d70f0db4e835fed7f1f3ef12, type: 2}
  - m_RefCount: 1
    m_Data: {fileID: 11400000, guid: 973da84df66c5474dab6166cafc39f74, type: 2}
  - m_RefCount: 1
    m_Data: {fileID: 11400000, guid: 6045241af96da4b419e3d44843fdf145, type: 2}
  - m_RefCount: 1
    m_Data: {fileID: 11400000, guid: cf4c4bc3787be4344b426ff07466cd14, type: 2}
  - m_RefCount: 1
    m_Data: {fileID: 11400000, guid: 803e43268cbece641826b039c67428f5, type: 2}
  - m_RefCount: 1
    m_Data: {fileID: 11400000, guid: fd19b16a1a6edbe4c8e9674c410ef9a6, type: 2}
  - m_RefCount: 1
    m_Data: {fileID: 11400000, guid: da15ced49f21403499b79f92d515e579, type: 2}
  - m_RefCount: 1
    m_Data: {fileID: 11400000, guid: b236ff95fb609514b8b25d06df7ddae2, type: 2}
  - m_RefCount: 1
    m_Data: {fileID: 11400000, guid: 46c0c470a4e4158448202b01ccb736c8, type: 2}
  - m_RefCount: 1
    m_Data: {fileID: 11400000, guid: 5bd2c5dd69c3bb8469f65e6875f8be58, type: 2}
  - m_RefCount: 1
    m_Data: {fileID: 11400000, guid: a61f9eb1851530747b4205ea051e0aa4, type: 2}
  - m_RefCount: 1
    m_Data: {fileID: 11400000, guid: 25aa525315217524baaf029528bf14f8, type: 2}
  - m_RefCount: 1
    m_Data: {fileID: 11400000, guid: 1a44dfbca2e7f8c4b956dc69c51cbda1, type: 2}
  - m_RefCount: 1
    m_Data: {fileID: 11400000, guid: 3dd96ce82bc56794b8a2f414fb572238, type: 2}
  - m_RefCount: 1
    m_Data: {fileID: 11400000, guid: 05c7bf019e3d1a0408c7e8561b3bfec5, type: 2}
  - m_RefCount: 1
    m_Data: {fileID: 11400000, guid: 26f889f9b07200648b8bcfda5f3731ae, type: 2}
  - m_RefCount: 1
    m_Data: {fileID: 11400000, guid: ca6472989ac510b4995311edfcf38733, type: 2}
  - m_RefCount: 1
    m_Data: {fileID: 11400000, guid: cb34413f15f1f324b88290f4905ba69b, type: 2}
  m_TileSpriteArray:
  - m_RefCount: 1
    m_Data: {fileID: 301744336, guid: 2184534deabd01745a870c783f06a8ec, type: 3}
  - m_RefCount: 1
    m_Data: {fileID: -617316971, guid: 2184534deabd01745a870c783f06a8ec, type: 3}
  - m_RefCount: 1
    m_Data: {fileID: -576867482, guid: 2184534deabd01745a870c783f06a8ec, type: 3}
  - m_RefCount: 1
    m_Data: {fileID: 355639393, guid: 2184534deabd01745a870c783f06a8ec, type: 3}
  - m_RefCount: 1
    m_Data: {fileID: -1033774945, guid: 2184534deabd01745a870c783f06a8ec, type: 3}
  - m_RefCount: 1
    m_Data: {fileID: 1657311030, guid: 2184534deabd01745a870c783f06a8ec, type: 3}
  - m_RefCount: 1
    m_Data: {fileID: -223719083, guid: 2184534deabd01745a870c783f06a8ec, type: 3}
  - m_RefCount: 1
    m_Data: {fileID: 451722796, guid: 2184534deabd01745a870c783f06a8ec, type: 3}
  - m_RefCount: 1
    m_Data: {fileID: 1657170602, guid: 2184534deabd01745a870c783f06a8ec, type: 3}
  - m_RefCount: 1
    m_Data: {fileID: 403437537, guid: 2184534deabd01745a870c783f06a8ec, type: 3}
  - m_RefCount: 1
    m_Data: {fileID: 1953095263, guid: 2184534deabd01745a870c783f06a8ec, type: 3}
  - m_RefCount: 1
    m_Data: {fileID: 1501774076, guid: 2184534deabd01745a870c783f06a8ec, type: 3}
  - m_RefCount: 1
    m_Data: {fileID: 1274311233, guid: 2184534deabd01745a870c783f06a8ec, type: 3}
  - m_RefCount: 1
    m_Data: {fileID: 1743271921, guid: 2184534deabd01745a870c783f06a8ec, type: 3}
  - m_RefCount: 1
    m_Data: {fileID: 1265682381, guid: 2184534deabd01745a870c783f06a8ec, type: 3}
  - m_RefCount: 1
    m_Data: {fileID: -1150311994, guid: 2184534deabd01745a870c783f06a8ec, type: 3}
  - m_RefCount: 1
    m_Data: {fileID: 249789564, guid: 2184534deabd01745a870c783f06a8ec, type: 3}
  - m_RefCount: 1
    m_Data: {fileID: -222617047, guid: 2184534deabd01745a870c783f06a8ec, type: 3}
  - m_RefCount: 1
    m_Data: {fileID: -1155383252, guid: 2184534deabd01745a870c783f06a8ec, type: 3}
  - m_RefCount: 1
    m_Data: {fileID: 105935131, guid: 2184534deabd01745a870c783f06a8ec, type: 3}
  - m_RefCount: 1
    m_Data: {fileID: 1372759438, guid: 2184534deabd01745a870c783f06a8ec, type: 3}
  - m_RefCount: 1
    m_Data: {fileID: -656490020, guid: 4ee8b592e0981824d8e5ab058de618b1, type: 3}
  - m_RefCount: 1
    m_Data: {fileID: 2068450351, guid: 4ee8b592e0981824d8e5ab058de618b1, type: 3}
  - m_RefCount: 1
    m_Data: {fileID: -33910861, guid: 4ee8b592e0981824d8e5ab058de618b1, type: 3}
  - m_RefCount: 1
    m_Data: {fileID: -202836615, guid: 4ee8b592e0981824d8e5ab058de618b1, type: 3}
  - m_RefCount: 1
    m_Data: {fileID: 1719910854, guid: 4ee8b592e0981824d8e5ab058de618b1, type: 3}
  - m_RefCount: 1
    m_Data: {fileID: -1733035173, guid: 4ee8b592e0981824d8e5ab058de618b1, type: 3}
  - m_RefCount: 1
    m_Data: {fileID: 726842957, guid: 4ee8b592e0981824d8e5ab058de618b1, type: 3}
  - m_RefCount: 1
    m_Data: {fileID: -1057795746, guid: 4ee8b592e0981824d8e5ab058de618b1, type: 3}
  - m_RefCount: 1
    m_Data: {fileID: 1308195665, guid: 4ee8b592e0981824d8e5ab058de618b1, type: 3}
  - m_RefCount: 1
    m_Data: {fileID: -1825245017, guid: 4ee8b592e0981824d8e5ab058de618b1, type: 3}
  - m_RefCount: 1
    m_Data: {fileID: -689121472, guid: d7c4f8628fb4a534090401d7110ac09a, type: 3}
  - m_RefCount: 1
    m_Data: {fileID: 1785052955, guid: d7c4f8628fb4a534090401d7110ac09a, type: 3}
  - m_RefCount: 1
    m_Data: {fileID: -59232632, guid: cdbdea7615c9a8e439001cc0fd1ba7a0, type: 3}
  - m_RefCount: 1
    m_Data: {fileID: 219812834, guid: cdbdea7615c9a8e439001cc0fd1ba7a0, type: 3}
  - m_RefCount: 1
    m_Data: {fileID: 815878733, guid: cdbdea7615c9a8e439001cc0fd1ba7a0, type: 3}
  - m_RefCount: 1
    m_Data: {fileID: 302349127, guid: cdbdea7615c9a8e439001cc0fd1ba7a0, type: 3}
  - m_RefCount: 1
    m_Data: {fileID: -1763725204, guid: cdbdea7615c9a8e439001cc0fd1ba7a0, type: 3}
  - m_RefCount: 1
    m_Data: {fileID: -175214617, guid: 6e458bd9dd7e49044a1bd821e8748327, type: 3}
  - m_RefCount: 1
    m_Data: {fileID: -269928393, guid: 6e458bd9dd7e49044a1bd821e8748327, type: 3}
  - m_RefCount: 1
    m_Data: {fileID: 865223870, guid: 6e458bd9dd7e49044a1bd821e8748327, type: 3}
  - m_RefCount: 1
    m_Data: {fileID: 183300508, guid: 6e458bd9dd7e49044a1bd821e8748327, type: 3}
  - m_RefCount: 1
    m_Data: {fileID: 999677102, guid: 6e458bd9dd7e49044a1bd821e8748327, type: 3}
  - m_RefCount: 1
    m_Data: {fileID: 1179633790, guid: 6e458bd9dd7e49044a1bd821e8748327, type: 3}
  - m_RefCount: 1
    m_Data: {fileID: -1046150356, guid: 6e458bd9dd7e49044a1bd821e8748327, type: 3}
  - m_RefCount: 1
    m_Data: {fileID: 1167960902, guid: 6e458bd9dd7e49044a1bd821e8748327, type: 3}
  m_TileMatrixArray:
  - m_RefCount: 46
    m_Data:
      e00: 1
      e01: 0
      e02: 0
      e03: 0
      e10: 0
      e11: 1
      e12: 0
      e13: 0
      e20: 0
      e21: 0
      e22: 1
      e23: 0
      e30: 0
      e31: 0
      e32: 0
      e33: 1
  m_TileColorArray:
  - m_RefCount: 46
    m_Data: {r: 1, g: 1, b: 1, a: 1}
  m_TileObjectToInstantiateArray: []
  m_AnimationFrameRate: 1
  m_Color: {r: 1, g: 1, b: 1, a: 1}
  m_Origin: {x: -2, y: -13, z: 0}
  m_Size: {x: 17, y: 16, z: 1}
  m_TileAnchor: {x: 0.5, y: 0.5, z: 0}
  m_TileOrientation: 0
  m_TileOrientationMatrix:
    e00: 1
    e01: 0
    e02: 0
    e03: 0
    e10: 0
    e11: 1
    e12: 0
    e13: 0
    e20: 0
    e21: 0
    e22: 1
    e23: 0
    e30: 0
    e31: 0
    e32: 0
    e33: 1
--- !u!483693784 &8683184593549091989
TilemapRenderer:
  m_ObjectHideFlags: 0
  m_CorrespondingSourceObject: {fileID: 0}
  m_PrefabInstance: {fileID: 0}
  m_PrefabAsset: {fileID: 0}
  m_GameObject: {fileID: 7990139901615398237}
  m_Enabled: 1
  m_CastShadows: 0
  m_ReceiveShadows: 0
  m_DynamicOccludee: 0
  m_StaticShadowCaster: 0
  m_MotionVectors: 1
  m_LightProbeUsage: 0
  m_ReflectionProbeUsage: 0
  m_RayTracingMode: 0
  m_RayTraceProcedural: 0
  m_RenderingLayerMask: 1
  m_RendererPriority: 0
  m_Materials:
  - {fileID: 10754, guid: 0000000000000000f000000000000000, type: 0}
  m_StaticBatchInfo:
    firstSubMesh: 0
    subMeshCount: 0
  m_StaticBatchRoot: {fileID: 0}
  m_ProbeAnchor: {fileID: 0}
  m_LightProbeVolumeOverride: {fileID: 0}
  m_ScaleInLightmap: 1
  m_ReceiveGI: 1
  m_PreserveUVs: 0
  m_IgnoreNormalsForChartDetection: 0
  m_ImportantGI: 0
  m_StitchLightmapSeams: 1
  m_SelectedEditorRenderState: 0
  m_MinimumChartSize: 4
  m_AutoUVMaxDistance: 0.5
  m_AutoUVMaxAngle: 89
  m_LightmapParameters: {fileID: 0}
  m_SortingLayerID: 0
  m_SortingLayer: 0
  m_SortingOrder: 0
  m_ChunkSize: {x: 32, y: 32, z: 32}
  m_ChunkCullingBounds: {x: 0, y: 0, z: 0}
  m_MaxChunkCount: 16
  m_MaxFrameAge: 16
  m_SortOrder: 0
  m_Mode: 0
  m_DetectChunkCullingBounds: 0
  m_MaskInteraction: 0
--- !u!114 &1097799418529734821
MonoBehaviour:
  m_ObjectHideFlags: 0
  m_CorrespondingSourceObject: {fileID: 0}
  m_PrefabInstance: {fileID: 0}
  m_PrefabAsset: {fileID: 0}
  m_GameObject: {fileID: 0}
  m_Enabled: 1
  m_EditorHideFlags: 0
  m_Script: {fileID: 12395, guid: 0000000000000000e000000000000000, type: 0}
  m_Name: Palette Settings
  m_EditorClassIdentifier: 
  cellSizing: 0
  m_TransparencySortMode: 0
  m_TransparencySortAxis: {x: 0, y: 0, z: 1}
