%YAML 1.1
%TAG !u! tag:unity3d.com,2011:
--- !u!74 &7400000
AnimationClip:
  m_ObjectHideFlags: 0
  m_CorrespondingSourceObject: {fileID: 0}
  m_PrefabInstance: {fileID: 0}
  m_PrefabAsset: {fileID: 0}
  m_Name: shoot
  serializedVersion: 7
  m_Legacy: 0
  m_Compressed: 0
  m_UseHighQualityCurve: 1
  m_RotationCurves: []
  m_CompressedRotationCurves: []
  m_EulerCurves: []
  m_PositionCurves: []
  m_ScaleCurves: []
  m_FloatCurves: []
  m_PPtrCurves:
  - curve:
    - time: 0
      value: {fileID: 21300000, guid: ab9314b64f273f541b304a0ab1984c93, type: 3}
    - time: 0.033333335
      value: {fileID: 21300000, guid: bae416624f1bd0b4cabed50dc3eeb2ef, type: 3}
    - time: 0.06666667
      value: {fileID: 21300000, guid: 3cfed3721cb6d76468c2b8b02bc533be, type: 3}
    - time: 0.1
      value: {fileID: 21300000, guid: c83badfda3241b24e98132f3a1cb501a, type: 3}
    - time: 0.13333334
      value: {fileID: 21300000, guid: 8e61baa2431ca0c48a9c239b2d62018a, type: 3}
    - time: 0.16666667
      value: {fileID: 21300000, guid: f27a5e2c8d4f3724fba6ea578c2e53dc, type: 3}
    - time: 0.2
      value: {fileID: 21300000, guid: 52b1abaa41fdc5f4289a53d2faf7517a, type: 3}
    - time: 0.23333333
      value: {fileID: 21300000, guid: 44c4d9f38d56e8d4a8a6fafe83aa8ce6, type: 3}
    - time: 0.26666668
      value: {fileID: 21300000, guid: dd3bd9aa3d1faf14c85b18b2ba2cd33e, type: 3}
    - time: 0.3
      value: {fileID: 21300000, guid: 737009e69b58ec744ad833cac47d73cc, type: 3}
    - time: 0.33333334
      value: {fileID: 21300000, guid: 6504246e151d1db43b41b4b0895e47e6, type: 3}
    - time: 0.36666667
      value: {fileID: 21300000, guid: 87ae0db358488bf498f1be9aa146ae08, type: 3}
    - time: 0.4
      value: {fileID: 21300000, guid: 1926263c93812864086ad1c2c5a03321, type: 3}
    - time: 0.43333334
      value: {fileID: 21300000, guid: ce28d47042bb2aa4e910950155a5d949, type: 3}
    - time: 0.46666667
      value: {fileID: 21300000, guid: 4ad821321a1200347a3cce672c87dfa5, type: 3}
    attribute: m_Sprite
    path: 
    classID: 212
    script: {fileID: 0}
  m_SampleRate: 30
  m_WrapMode: 0
  m_Bounds:
    m_Center: {x: 0, y: 0, z: 0}
    m_Extent: {x: 0, y: 0, z: 0}
  m_ClipBindingConstant:
    genericBindings:
    - serializedVersion: 2
      path: 0
      attribute: 0
      script: {fileID: 0}
      typeID: 212
      customType: 23
      isPPtrCurve: 1
    pptrCurveMapping:
    - {fileID: 21300000, guid: ab9314b64f273f541b304a0ab1984c93, type: 3}
    - {fileID: 21300000, guid: bae416624f1bd0b4cabed50dc3eeb2ef, type: 3}
    - {fileID: 21300000, guid: 3cfed3721cb6d76468c2b8b02bc533be, type: 3}
    - {fileID: 21300000, guid: c83badfda3241b24e98132f3a1cb501a, type: 3}
    - {fileID: 21300000, guid: 8e61baa2431ca0c48a9c239b2d62018a, type: 3}
    - {fileID: 21300000, guid: f27a5e2c8d4f3724fba6ea578c2e53dc, type: 3}
    - {fileID: 21300000, guid: 52b1abaa41fdc5f4289a53d2faf7517a, type: 3}
    - {fileID: 21300000, guid: 44c4d9f38d56e8d4a8a6fafe83aa8ce6, type: 3}
    - {fileID: 21300000, guid: dd3bd9aa3d1faf14c85b18b2ba2cd33e, type: 3}
    - {fileID: 21300000, guid: 737009e69b58ec744ad833cac47d73cc, type: 3}
    - {fileID: 21300000, guid: 6504246e151d1db43b41b4b0895e47e6, type: 3}
    - {fileID: 21300000, guid: 87ae0db358488bf498f1be9aa146ae08, type: 3}
    - {fileID: 21300000, guid: 1926263c93812864086ad1c2c5a03321, type: 3}
    - {fileID: 21300000, guid: ce28d47042bb2aa4e910950155a5d949, type: 3}
    - {fileID: 21300000, guid: 4ad821321a1200347a3cce672c87dfa5, type: 3}
  m_AnimationClipSettings:
    serializedVersion: 2
    m_AdditiveReferencePoseClip: {fileID: 0}
    m_AdditiveReferencePoseTime: 0
    m_StartTime: 0
    m_StopTime: 0.5
    m_OrientationOffsetY: 0
    m_Level: 0
    m_CycleOffset: 0
    m_HasAdditiveReferencePose: 0
    m_LoopTime: 0
    m_LoopBlend: 0
    m_LoopBlendOrientation: 0
    m_LoopBlendPositionY: 0
    m_LoopBlendPositionXZ: 0
    m_KeepOriginalOrientation: 0
    m_KeepOriginalPositionY: 1
    m_KeepOriginalPositionXZ: 0
    m_HeightFromFeet: 0
    m_Mirror: 0
  m_EditorCurves: []
  m_EulerEditorCurves: []
  m_HasGenericRootTransform: 0
  m_HasMotionFloatCurves: 0
  m_Events: []
